{
  "version": 2,
  "routes": [
    {
      "src": "/images/(.*)",
      "headers": { "cache-control": "public, max-age=120, s-maxage=604800" },
      "dest": "/images/$1"
    },
    {
      "src": "(/favicon\\.ico|/icon\\.(svg|png))",
      "headers": { "cache-control": "public, max-age=120, s-maxage=604800" },
      "dest": "$1"
    },
    {
      "src": "/sw.js",
      "dest": "/sw.js",
      "headers": {
        "cache-control": "public, max-age=43200, immutable",
        "Service-Worker-Allowed": "/"
      }
    },
    { "src": "/_nuxt/.+", "headers": { "Cache-Control": "max-age=31557600" } }
  ]
}
